Problem :

The series, 11 + 22 + 33 + ... + 1010 = 10405071317.

Find the last ten digits of the series, 11 + 22 + 33 + ... + 10001000.


Solution:

#include<iostream>
#include<conio.h>
#include <string>
#include <iomanip>
#include <sstream>
#include <math.h>
#include <set>
using namespace std;
/* Function to swap values at two pointers */


/* Driver program to test above functions */
int main()
{

    static int  a[3101]  ;
    static int  b[3101]  ;

    unsigned long long j= 1;
	cout<<"\n Program Execution is in progress .Takes some time ...";

    for(int u =0;u<3101;++u)
    {

       b[u] = 0 ;
	  a[u] = 0;

    }

    a[3100] =1;

   for(unsigned long long i=1 ;i<=1000;++i)
   {

	 

	 for(j= 1 ;j<=i;++j)
	 {
		

		for(int p = 3100 ;p>=1;--p)
		{
			a[p]=a[p]*(int)i;
		}

		for(int p = 3100 ;p>=1;--p)
		{
			if(a[p]>=10)
			{
					
				a[p-1] +=(a[p]/10);
				a[p] =a[p]%10;
			}
			
		}

	}

		
	for(int u =3100;u>=1;--u)
	{

		b[u] =b[u]+a[u];
	}
	
	for(int u =3100;u>=1;--u)
	{
		if(b[u]>=10)
		{
			b[u-1]+= b[u]/10;
			b[u]=b[u]%10;
		}

	}


	for(int u =0;u<3101;++u)
	{
		a[u] = 0;

	}

	a[3100] =1;
 }



 for(int u =0;u<3101;++u)
 {

	cout<<b[u] ;

 }

 getch();
 return 0;
}

Answer:
9110846700


